<svg fill="none" xmlns="http://www.w3.org/2000/svg">
<path d="M35.9549 7.17745C35.9009 7.18641 35.848 7.20151 35.7974 7.22245C35.7068 7.25069 35.6227 7.29657 35.5499 7.35745L30.4874 11.8125L24.0074 10.0125C23.84 9.96525 23.6612 9.98026 23.5041 10.0547C23.3469 10.1292 23.222 10.258 23.1524 10.4175L20.5199 16.605L13.9274 17.7975C13.7566 17.8244 13.6012 17.9121 13.4896 18.0443C13.3781 18.1765 13.3178 18.3444 13.3199 18.5175L13.6349 25.2225L8.21239 29.1825C8.07872 29.2851 7.98524 29.4313 7.94824 29.5958C7.91124 29.7602 7.93306 29.9324 8.00989 30.0825L11.1824 36L8.00989 41.9175C7.93306 42.0675 7.91124 42.2397 7.94824 42.4041C7.98524 42.5686 8.07872 42.7149 8.21239 42.8175L13.6574 46.7775L13.3199 53.4825C13.3178 53.6555 13.3781 53.8234 13.4896 53.9556C13.6012 54.0878 13.7566 54.1755 13.9274 54.2025L20.5199 55.395L23.1524 61.5825C23.222 61.7419 23.3469 61.8708 23.5041 61.9452C23.6612 62.0196 23.84 62.0347 24.0074 61.9875L30.4874 60.1875L35.5499 64.6425C35.6793 64.7505 35.8426 64.8097 36.0111 64.8097C36.1797 64.8097 36.343 64.7505 36.4724 64.6425L41.5349 60.1875L47.9699 61.9875C48.1373 62.0347 48.316 62.0196 48.4732 61.9452C48.6304 61.8708 48.7553 61.7419 48.8249 61.5825L51.4799 55.395L58.0499 54.2025C58.2207 54.1755 58.3761 54.0878 58.4876 53.9556C58.5992 53.8234 58.6594 53.6555 58.6574 53.4825L58.3199 46.7775L63.7874 42.8175C63.9249 42.718 64.0228 42.5732 64.064 42.4085C64.1052 42.2439 64.0869 42.07 64.0124 41.9175L60.8174 36L64.0124 30.0825C64.0869 29.93 64.1052 29.756 64.064 29.5914C64.0228 29.4267 63.9249 29.2819 63.7874 29.1825L58.3649 25.2225L58.6574 18.5175C58.6594 18.3444 58.5992 18.1765 58.4876 18.0443C58.3761 17.9121 58.2207 17.8244 58.0499 17.7975L51.4799 16.605L48.8249 10.4175C48.7553 10.258 48.6304 10.1292 48.4732 10.0547C48.316 9.98026 48.1373 9.96525 47.9699 10.0125L41.5349 11.8125L36.4724 7.35745C36.3303 7.23155 36.1444 7.16686 35.9549 7.17745ZM35.9999 8.86495L40.8599 13.14C40.9522 13.2171 41.0623 13.2698 41.1802 13.2934C41.2981 13.317 41.4201 13.3106 41.5349 13.275L47.7674 11.5425L50.3099 17.505C50.352 17.6171 50.4213 17.717 50.5117 17.7956C50.602 17.8741 50.7105 17.9289 50.8274 17.955L57.1949 19.08L56.9024 25.56C56.8979 25.6774 56.9222 25.7942 56.9732 25.9001C57.0242 26.006 57.1003 26.0978 57.1949 26.1675L62.4374 29.97L59.3324 35.6625C59.2773 35.7664 59.2485 35.8823 59.2485 36C59.2485 36.1176 59.2773 36.2335 59.3324 36.3375L62.4374 42.03L57.1949 45.8325C57.1003 45.9021 57.0242 45.9939 56.9732 46.0998C56.9222 46.2057 56.8979 46.3225 56.9024 46.44L57.1949 52.92L50.8274 54.045C50.7105 54.071 50.602 54.1258 50.5117 54.2043C50.4213 54.2829 50.352 54.3828 50.3099 54.495L47.7674 60.4575L41.5349 58.725C41.4201 58.6893 41.2981 58.6829 41.1802 58.7065C41.0623 58.7301 40.9522 58.7828 40.8599 58.86L35.9999 63.135L31.1399 58.86C31.0476 58.7828 30.9375 58.7301 30.8196 58.7065C30.7017 58.6829 30.5797 58.6893 30.4649 58.725L24.2549 60.4575L21.7124 54.495C21.6664 54.3771 21.5902 54.2735 21.4914 54.1945C21.3927 54.1155 21.2749 54.0639 21.1499 54.045L14.8274 52.92L15.0974 46.44C15.0994 46.3205 15.0716 46.2024 15.0166 46.0964C14.9616 45.9903 14.8811 45.8996 14.7824 45.8325L9.56239 42.03L12.6449 36.3375C12.7 36.2335 12.7288 36.1176 12.7288 36C12.7288 35.8823 12.7 35.7664 12.6449 35.6625L9.56239 29.97L14.7824 26.1675C14.8811 26.1003 14.9616 26.0096 15.0166 25.9035C15.0716 25.7975 15.0994 25.6794 15.0974 25.56L14.8274 19.08L21.1499 17.955C21.2749 17.936 21.3927 17.8844 21.4914 17.8054C21.5902 17.7264 21.6664 17.6228 21.7124 17.505L24.2549 11.5425L30.4649 13.275C30.5797 13.3106 30.7017 13.317 30.8196 13.2934C30.9375 13.2698 31.0476 13.2171 31.1399 13.14L35.9999 8.86495ZM28.8899 25.155C26.7875 25.155 25.0649 26.8552 25.0649 28.9575C25.0649 31.0597 26.7875 32.7825 28.8899 32.7825C30.9923 32.7825 32.7149 31.0597 32.7149 28.9575C32.7149 26.8552 30.9923 25.155 28.8899 25.155ZM28.8899 26.595C30.2142 26.595 31.2749 27.6335 31.2749 28.9575C31.2749 30.2814 30.2142 31.3425 28.8899 31.3425C27.5656 31.3425 26.5049 30.2814 26.5049 28.9575C26.5049 27.6335 27.5656 26.595 28.8899 26.595ZM44.4374 26.7525C44.2732 26.776 44.1222 26.8555 44.0099 26.9775L26.9774 43.9875C26.8987 44.0509 26.8342 44.1301 26.7882 44.2201C26.7422 44.31 26.7156 44.4087 26.7102 44.5096C26.7048 44.6105 26.7206 44.7114 26.7568 44.8058C26.793 44.9002 26.8486 44.9858 26.92 45.0573C26.9915 45.1288 27.0772 45.1844 27.1716 45.2205C27.2659 45.2567 27.3668 45.2726 27.4678 45.2672C27.5687 45.2618 27.6673 45.2352 27.7573 45.1891C27.8472 45.1431 27.9265 45.0786 27.9899 45L45.0224 27.99C45.1327 27.8856 45.2072 27.7491 45.2352 27.5999C45.2633 27.4506 45.2434 27.2964 45.1785 27.1591C45.1136 27.0219 45.007 26.9086 44.8739 26.8356C44.7408 26.7625 44.588 26.7334 44.4374 26.7525ZM43.1099 39.195C41.0075 39.195 39.2849 40.9176 39.2849 43.02C39.2849 45.1222 41.0074 46.845 43.1099 46.845C45.2123 46.845 46.9349 45.1222 46.9349 43.02C46.9349 40.9176 45.2123 39.195 43.1099 39.195ZM43.1099 40.635C44.4342 40.635 45.4949 41.6959 45.4949 43.02C45.4949 44.3439 44.4342 45.405 43.1099 45.405C41.7856 45.405 40.7249 44.3439 40.7249 43.02C40.7249 41.6959 41.7856 40.635 43.1099 40.635Z" fill="#3079D2"/>
</svg>
