<svg width="10" height="10" viewBox="0 0 10 10" fill="none" xmlns="http://www.w3.org/2000/svg">
<path d="M5.25502 0.811343L6.21335 3.64868L9.20769 3.68334C9.46535 3.68634 9.57202 4.01468 9.36535 4.16834L6.96302 5.95634L7.85535 8.81501C7.93202 9.06101 7.65302 9.26368 7.44269 9.11468L5.00002 7.38234L2.55702 9.11434C2.34702 9.26334 2.06769 9.06034 2.14435 8.81468L3.03669 5.95601L0.634354 4.16801C0.427687 4.01434 0.534353 3.68601 0.79202 3.68301L3.78635 3.64834L4.74469 0.81101C4.82735 0.56701 5.17269 0.56701 5.25502 0.811343Z" fill="#23426C"/>
</svg>
